Hours,R (5e13),R (1e14),R (3e14),R (6e14)
0,1.000,1.000,1.000,1.000
1,1.004,1.010,1.029,1.057
2,1.009,1.019,1.056,1.106
3,1.014,1.028,1.080,1.147
4,1.018,1.036,1.101,1.180
5,1.022,1.044,1.120,1.209
6,1.026,1.051,1.137,1.232
7,1.029,1.058,1.152,1.252
8,1.033,1.064,1.166,1.269
9,1.036,1.070,1.178,1.284
10,1.039,1.075,1.189,1.297
11,1.042,1.080,1.199,1.308
12,1.044,1.085,1.208,1.318
13,1.047,1.090,1.216,1.327
14,1.049,1.094,1.224,1.335
15,1.052,1.098,1.230,1.343
16,1.054,1.101,1.237,1.350
17,1.056,1.105,1.243,1.356
18,1.058,1.108,1.248,1.362
19,1.060,1.111,1.253,1.368
20,1.061,1.114,1.258,1.373
21,1.063,1.117,1.262,1.379
22,1.065,1.120,1.266,1.383
23,1.066,1.122,1.270,1.388
24,1.068,1.125,1.274,1.393
48,1.090,1.160,1.332,1.478
72,1.101,1.178,1.372,1.549
96,1.109,1.191,1.406,1.617
120,1.115,1.203,1.438,1.685
144,1.120,1.213,1.470,1.753
168,1.125,1.223,1.501,1.823
192,1.130,1.233,1.533,1.893
216,1.134,1.242,1.564,1.964
240,1.139,1.251,1.595,2.036
264,1.143,1.260,1.627,2.110
288,1.147,1.269,1.658,2.184
312,1.151,1.278,1.690,2.259
336,1.155,1.287,1.722,2.335
360,1.160,1.296,1.754,2.412
384,1.164,1.304,1.786,2.490
408,1.168,1.313,1.818,2.568
432,1.172,1.322,1.851,2.647
456,1.176,1.330,1.884,2.727
480,1.180,1.339,1.916,2.808
504,1.184,1.348,1.949,2.888
528,1.187,1.356,1.982,2.970
552,1.191,1.365,2.016,3.052
576,1.195,1.374,2.049,3.134
600,1.199,1.382,2.082,3.216
